###############################################################################
#
# IAR ANSI C/C++ Compiler V7.40.7.9843/W32 for ARM        18/Dec/2019  15:12:38
# Copyright 1999-2015 IAR Systems AB.
#
#    Cpu mode     =  thumb
#    Endian       =  little
#    Source file  =  
#        C:\Users\Ian\Desktop\Projects\hub
#        project\hub\clang\include\superior\superior_vectable.c
#    Command line =  
#        "C:\Users\Ian\Desktop\Projects\hub
#        project\hub\clang\include\superior\superior_vectable.c" -D
#        RESISTANCE_TRIMS -D AFE_TRIMS -D USB_TRIMS -D NDEBUG -lC
#        "C:\Users\Ian\Desktop\Projects\hub
#        project\hub\toolchain\iar\project\Release\List" -o
#        "C:\Users\Ian\Desktop\Projects\hub
#        project\hub\toolchain\iar\project\Release\Obj" --endian=little
#        --cpu=Cortex-M0 -e --fpu=None --dlib_config "C:\Program Files
#        (x86)\IAR Systems\Embedded Workbench
#        7.2\arm\INC\c\DLib_Config_Normal.h" -I
#        "C:\Users\Ian\Desktop\Projects\hub
#        project\hub\toolchain\iar\project\..\..\..\clang\include\" -I
#        "C:\Users\Ian\Desktop\Projects\hub
#        project\hub\toolchain\iar\project\..\..\..\clang\include\superior\clough\"
#        -I "C:\Users\Ian\Desktop\Projects\hub
#        project\hub\toolchain\iar\project\..\..\..\clang\include\superior\sfr\"
#        -I "C:\Users\Ian\Desktop\Projects\hub
#        project\hub\toolchain\iar\project\..\..\..\clang\include\superior\" -I
#        "C:\Users\Ian\Desktop\Projects\hub
#        project\hub\toolchain\iar\project\..\SEGGER_RTT_V640\RTT\" -I
#        "C:\Users\Ian\Desktop\Projects\hub
#        project\hub\toolchain\iar\project\..\..\..\clang\source\FreeRTOS\" -Oh
#        -I "C:\Program Files (x86)\IAR Systems\Embedded Workbench
#        7.2\arm\CMSIS\Include\"
#    List file    =  
#        C:\Users\Ian\Desktop\Projects\hub
#        project\hub\toolchain\iar\project\Release\List\superior_vectable.lst
#    Object file  =  
#        C:\Users\Ian\Desktop\Projects\hub
#        project\hub\toolchain\iar\project\Release\Obj\superior_vectable.o
#
###############################################################################

C:\Users\Ian\Desktop\Projects\hub project\hub\clang\include\superior\superior_vectable.c
      1          // ********************************************************************************************************************
      2          //
      3          // COPYRIGHT 2017 AyDeeKay LLC - All Rights Reserved
      4          // No part of this document can be used, copied, transmitted, or modified by
      5          // any existing or to be invented means without express approval of AyDeeKay
      6          // LLC.
      7          //
      8          // ********************************************************************************************************************
      9          //
     10          // File:
     11          //   superior_boot.c
     12          //
     13          // ********************************************************************************************************************
     14          
     15          #include "superior.h"
     16          #include "./clough/clough_dbg.h"
     17          #include <stdint.h>
     18          
     19          
     20          // ********************************************************************************************************************
     21          // vector table
     22          // ********************************************************************************************************************
     23          
     24          #if defined( __ICCARM__ )
     25            #pragma language=extended
     26            #pragma segment="CSTACK"
     27            extern void __iar_program_start( void );
     28            typedef void( *intfunc )( void );
     29            typedef union { intfunc __fun; void * __ptr; } intvec_elem;
     30            #pragma location = ".intvec"

   \                                 In section .intvec, align 4
     31            const intvec_elem __vector_table[] = {
   \                     __vector_table:
   \   00000000   0x........         DC32 SFE(CSTACK), __iar_program_start, NMI_Handler, HardFault_Handler
   \              0x........   
   \              0x........   
   \              0x........   
   \   00000010   0x00000000         DC32 0H, 0H, 0H, 0H, 0H, 0H, 0H, SVC_Handler, 0H, 0H, PendSV_Handler
   \              0x00000000   
   \              0x00000000   
   \              0x00000000   
   \              0x00000000   
   \              0x00000000   
   \              0x00000000   
   \              0x........   
   \              0x00000000   
   \              0x00000000   
   \              0x........   
   \   0000003C   0x........         DC32 SysTick_Handler, USBDCH2HH_Handler, USBDCH2HD_Handler, H2H_Handler
   \              0x........   
   \              0x........   
   \              0x........   
   \   0000004C   0x........         DC32 UHKADC_Handler, PortChng_Handler, USBDCAPP_Handler
   \              0x........   
   \              0x........   
   \   00000058   0x........         DC32 Suspend_Handler, WUSB_Handler, OvrCrnt_OvrDrv_Handler
   \              0x........   
   \              0x........   
   \   00000064   0x........         DC32 VBus_SlpTimer_Handler, SD_Handler, USBDCAPP_FIFO_Handler
   \              0x........   
   \              0x........   
   \   00000070   0x........         DC32 UART_LIN_Handler, GPIO_WDT_Handler, SPI_I2C_Handler
   \              0x........   
   \              0x........   
   \   0000007C   0x........         DC32 CHGMEAS_USBC_Handler, Timer0_Handler, Timer1_Handler
   \              0x........   
   \              0x........   
   \   00000088   0x........         DC32 Timer2_Handler, WDOG_Handler, BTE_Handler, SDIO_Handler
   \              0x........   
   \              0x........   
   \              0x........   
     32          #elif defined( __GNUC__ )
     33            typedef void( *const vectElem_t ) (void);
     34            vectElem_t __vectorTable[] __attribute__ ((section(".irq_vectors"))) = {
     35          #else
     36            #error Unsupported Compiler
     37          #endif
     38              
     39            //{ .__ptr = __sfe("CSTACK") },    // [-16]    stack to populated by linker
     40           
     41          #if defined( __ICCARM__ )
     42            { .__ptr = __sfe("CSTACK") },  // [-16]    stack to populated by linker
     43          #elif defined( __GNUC__ )
     44            (vectElem_t) SRAM_TOP,         // [-16]    Top of Stack
     45          #endif    
     46          
     47          #if defined( __ICCARM__ )  
     48            __iar_program_start,             // [-15]    Reset Handler
     49          #elif defined( __GNUC__ )
     50            Reset_Handler,
     51          #endif
     52            NMI_Handler,                     // [-14]    NMI Handler
     53            HardFault_Handler,               // [-13]    Hard Fault Handler
     54            0,                               // [-12]    Reserved
     55            0,                               // [-11]    Reserved
     56            0,                               // [-10]    Reserved
     57            0,                               // [ -9]    Reserved
     58            0,                               // [ -8]    Reserved
     59            0,                               // [ -7]    Reserved
     60            0,                               // [ -6]    Reserved
     61            SVC_Handler,                     // [ -5]    SVCall Handler
     62            0,                               // [ -4]    Reserved
     63            0,                               // [ -3]    Reserved
     64            PendSV_Handler,                  // [ -2]    PendSV Handler
     65            SysTick_Handler,                 // [ -1]    SysTick Handler
     66            USBDCH2HH_Handler,               // [  0]    H2HH_USB Interrupt
     67            USBDCH2HD_Handler,               // [  1]    H2HD_USB Interrupt
     68            H2H_Handler,                     // [  2]    H2H Interrupt
     69            UHKADC_Handler,                  // [  3]    HKADC interrupt
     70            PortChng_Handler,                // [  4]    Downstream port state change
     71            USBDCAPP_Handler,                // [  5]    USB Interrupt
     72            Suspend_Handler,                 // [  6]    Hub suspend
     73            WUSB_Handler,                    // [  7]    USB Wakeup Interrupt
     74            OvrCrnt_OvrDrv_Handler,          // [  8]    port power control switch overcurrent and Over Drive
     75            VBus_SlpTimer_Handler,           // [  9]    change in state of the VBUS_DET pin & Sleep Timer
     76            SD_Handler,                      // [ 10]    SD Card Host Interrupt Request
     77            USBDCAPP_FIFO_Handler,           // [ 11]    USB Device Endpoint FIFO Interrupt Request
     78            UART_LIN_Handler,                // [ 12]    UART and LIN interrupt
     79            GPIO_WDT_Handler,                // [ 13]    GPIO Barium and Watchdog Timer Interrupt
     80            SPI_I2C_Handler,                 // [ 14]    SPI/I2C Muxed Interrupt
     81            CHGMEAS_USBC_Handler,            // [ 15]    Charge Measurement DBE threshold exceeded & USB Type C
     82            Timer0_Handler,                  // [ 16]    Timer0 overflow
     83            Timer1_Handler,                  // [ 17]    Timer1 overflow
     84            Timer2_Handler,                  // [ 18]    Timer2 overflow
     85            WDOG_Handler,                    // [ 19]    Watchdog overflow
     86            BTE_Handler,                     // [ 20]    Block xfer done
     87            SDIO_Handler,                    // [ 21]    Serial link error
     88          };


   Section sizes:

   Bytes  Function/Label
   -----  --------------
     152  __vector_table

 
 152 bytes in section .intvec
 
 152 bytes of CONST memory

Errors: none
Warnings: none
