port.c:112:13:prvTaskExitError	0	static
port.c:94:14:pxPortInitialiseStack	8	static
port.c:129:12:xPortStartScheduler	8	static
port.c:150:6:vPortEndScheduler	0	static
port.c:158:6:vPortYield	8	static
port.c:170:6:vPortEnterCritical	8	static
port.c:179:6:vPortExitCritical	0	static
port.c:191:6:SysTick_Handler	8	static
