stream_buffer.c:1189:15:prvBytesInBuffer	0	static
stream_buffer.c:1088:15:prvWriteBytesToBuffer	32	static
stream_buffer.c:661:15:prvWriteMessageToBuffer	24	static
stream_buffer.c:1134:15:prvReadBytesFromBuffer	32	static
stream_buffer.c:219:23:xStreamBufferGenericCreate	32	static
stream_buffer.c:359:6:vStreamBufferDelete	8	static
stream_buffer.c:392:12:xStreamBufferReset	32	static
stream_buffer.c:441:12:xStreamBufferSetTriggerLevel	0	static
stream_buffer.c:470:8:xStreamBufferSpacesAvailable	0	static
stream_buffer.c:494:8:xStreamBufferBytesAvailable	8	static
stream_buffer.c:506:8:xStreamBufferSend	56	static
stream_buffer.c:610:8:xStreamBufferSendFromISR	40	static
stream_buffer.c:713:8:xStreamBufferReceive	40	static
stream_buffer.c:817:8:xStreamBufferNextMessageLengthBytes	24	static
stream_buffer.c:861:8:xStreamBufferReceiveFromISR	56	static
stream_buffer.c:970:12:xStreamBufferIsEmpty	0	static
stream_buffer.c:993:12:xStreamBufferIsFull	8	static
stream_buffer.c:1028:12:xStreamBufferSendCompletedFromISR	32	static
stream_buffer.c:1058:12:xStreamBufferReceiveCompletedFromISR	32	static
