hal.c:18:6:NMI_Handler	0	static
hal.c:22:6:HardFault_Handler	0	static
hal.c:33:6:SysTick_Handler	8	static
hal.c:41:6:SystemClock_Config	88	static
hal.c:11:6:init_hal	8	static
hal.c:76:6:vApplicationTickHook	0	static
hal.c:81:6:vApplicationIdleHook	0	static
hal.c:86:6:Error_Handler	0	static
hal.c:92:6:assert_failed	0	static
